{
"wheel":{
  "mass":0.03,
  "radius":0.04
},
"body":{
  "mass":0.6,
  "width":0.14,
  "depth":0.04,
  "height":0.144
},
"motor":{
  "inertia":0.00001,
  "resistance":6.68,
  "emf":0.468,
  "torque":0.317,
  "gearratio":1,
  "bmfriction":0.0022,
  "wffriction":0.0
}
}
